…
## Look at the dataset

``` r
litters_df
```

    ## # A tibble: 49 × 8
    ##    Group `Litter Number` `GD0 weight` `GD18 weight` `GD of Birth`
    ##    <chr> <chr>           <chr>        <chr>                 <dbl>
    ##  1 Con7  #85             19.7         34.7                     20
    ##  2 Con7  #1/2/95/2       27           42                       19
    ##  3 Con7  #5/5/3/83/3-3   26           41.4                     19
    ##  4 Con7  #5/4/2/95/2     28.5         44.1                     19
    ##  5 Con7  #4/2/95/3-3     <NA>         <NA>                     20
    ##  6 Con7  #2/2/95/3-2     <NA>         <NA>                     20
    ##  7 Con7  #1/5/3/83/3-3/2 <NA>         <NA>                     20
    ##  8 Con8  #3/83/3-3       <NA>         <NA>                     20
    ##  9 Con8  #2/95/3         <NA>         <NA>                     20
    ## 10 Con8  #3/5/2/2/95     28.5         <NA>                     20
    ## # ℹ 39 more rows
    ## # ℹ 3 more variables: `Pups born alive` <dbl>, `Pups dead @ birth` <dbl>,
    ## #   `Pups survive` <dbl>
…
## `select`

Use `select` to select variables

``` r
select(litters_df, group, litter_number, gd0_weight)
```

    ## # A tibble: 49 × 3
    ##   group litter_number gd0_weight
    ##   <chr> <chr>              <dbl>
    ## 1 Con7  #85                 19.7
    ## 2 Con7  #1/2/95/2           27  
    ## 3 Con7  #5/5/3/83/3-3       26  
    ## # ℹ 46 more rows

``` r
select(litters_df, GROUP = group)
```

    ## # A tibble: 49 × 1
    ##   GROUP
    ##   <chr>
    ## 1 Con7 
    ## 2 Con7 
    ## 3 Con7 
    ## # ℹ 46 more rows

``` r
rename(litters_df, GROUP = group)
```

    ## # A tibble: 49 × 8
    ##   GROUP litter_number gd0_weight gd18_weight gd_of_birth pups_born_alive
    ##   <chr> <chr>              <dbl>       <dbl>       <dbl>           <dbl>
    ## 1 Con7  #85                 19.7        34.7          20               3
    ## 2 Con7  #1/2/95/2           27          42            19               8
    ## 3 Con7  #5/5/3/83/3-3       26          41.4          19               6
    ## # ℹ 46 more rows
    ## # ℹ 2 more variables: pups_dead_birth <dbl>, pups_survive <dbl>

``` r
select(litters_df, litter_number, gd0_weight, everything())
```

    ## # A tibble: 49 × 8
    ##   litter_number gd0_weight group gd18_weight gd_of_birth pups_born_alive
    ##   <chr>              <dbl> <chr>       <dbl>       <dbl>           <dbl>
    ## 1 #85                 19.7 Con7         34.7          20               3
    ## 2 #1/2/95/2           27   Con7         42            19               8
    ## 3 #5/5/3/83/3-3       26   Con7         41.4          19               6
    ## # ℹ 46 more rows
    ## # ℹ 2 more variables: pups_dead_birth <dbl>, pups_survive <dbl>

``` r
relocate(litters_df, litter_number, gd0_weight)
```

    ## # A tibble: 49 × 8
    ##   litter_number gd0_weight group gd18_weight gd_of_birth pups_born_alive
    ##   <chr>              <dbl> <chr>       <dbl>       <dbl>           <dbl>
    ## 1 #85                 19.7 Con7         34.7          20               3
    ## 2 #1/2/95/2           27   Con7         42            19               8
    ## 3 #5/5/3/83/3-3       26   Con7         41.4          19               6
    ## # ℹ 46 more rows
    ## # ℹ 2 more variables: pups_dead_birth <dbl>, pups_survive <dbl>

## `filter`

``` r
filter(litters_df, gd_of_birth == 20)
```

    ## # A tibble: 32 × 8
    ##   group litter_number gd0_weight gd18_weight gd_of_birth pups_born_alive
    ##   <chr> <chr>              <dbl>       <dbl>       <dbl>           <dbl>
    ## 1 Con7  #85                 19.7        34.7          20               3
    ## 2 Con7  #4/2/95/3-3         NA          NA            20               6
    ## 3 Con7  #2/2/95/3-2         NA          NA            20               6
    ## # ℹ 29 more rows
    ## # ℹ 2 more variables: pups_dead_birth <dbl>, pups_survive <dbl>
…
``` r
filter(litters_df, pups_born_alive >= 8)
```

    ## # A tibble: 28 × 8
    ##   group litter_number   gd0_weight gd18_weight gd_of_birth pups_born_alive
    ##   <chr> <chr>                <dbl>       <dbl>       <dbl>           <dbl>
    ## 1 Con7  #1/2/95/2               27          42          19               8
    ## 2 Con7  #1/5/3/83/3-3/2         NA          NA          20               9
    ## 3 Con8  #3/83/3-3               NA          NA          20               9
    ## # ℹ 25 more rows
    ## # ℹ 2 more variables: pups_dead_birth <dbl>, pups_survive <dbl>

``` r
filter(litters_df, pups_born_alive != 8)
```

    ## # A tibble: 33 × 8
    ##   group litter_number gd0_weight gd18_weight gd_of_birth pups_born_alive
    ##   <chr> <chr>              <dbl>       <dbl>       <dbl>           <dbl>
    ## 1 Con7  #85                 19.7        34.7          20               3
    ## 2 Con7  #5/5/3/83/3-3       26          41.4          19               6
    ## 3 Con7  #5/4/2/95/2         28.5        44.1          19               5
    ## # ℹ 30 more rows
    ## # ℹ 2 more variables: pups_dead_birth <dbl>, pups_survive <dbl>
…
``` r
drop_na(litters_df)
```

    ## # A tibble: 31 × 8
    ##   group litter_number gd0_weight gd18_weight gd_of_birth pups_born_alive
    ##   <chr> <chr>              <dbl>       <dbl>       <dbl>           <dbl>
    ## 1 Con7  #85                 19.7        34.7          20               3
    ## 2 Con7  #1/2/95/2           27          42            19               8
    ## 3 Con7  #5/5/3/83/3-3       26          41.4          19               6
    ## # ℹ 28 more rows
    ## # ℹ 2 more variables: pups_dead_birth <dbl>, pups_survive <dbl>

``` r
drop_na(litters_df, gd0_weight)
```

    ## # A tibble: 34 × 8
    ##   group litter_number gd0_weight gd18_weight gd_of_birth pups_born_alive
    ##   <chr> <chr>              <dbl>       <dbl>       <dbl>           <dbl>
    ## 1 Con7  #85                 19.7        34.7          20               3
    ## 2 Con7  #1/2/95/2           27          42            19               8
    ## 3 Con7  #5/5/3/83/3-3       26          41.4          19               6
    ## # ℹ 31 more rows
    ## # ℹ 2 more variables: pups_dead_birth <dbl>, pups_survive <dbl>

``` r
filter(pups_df, sex == 1)
```

    ## # A tibble: 155 × 6
    ##   litter_number   sex pd_ears pd_eyes pd_pivot pd_walk
    ##   <chr>         <dbl>   <dbl>   <dbl>    <dbl>   <dbl>
    ## 1 #85               1       4      13        7      11
    ## 2 #85               1       4      13        7      12
    ## 3 #1/2/95/2         1       5      13        7       9
    ## # ℹ 152 more rows

``` r
filter(pups_df, pd_walk < 11, sex == 2)
```

    ## # A tibble: 127 × 6
    ##   litter_number   sex pd_ears pd_eyes pd_pivot pd_walk
    ##   <chr>         <dbl>   <dbl>   <dbl>    <dbl>   <dbl>
    ## 1 #1/2/95/2         2       4      13        7       9
    ## 2 #1/2/95/2         2       4      13        7      10
    ## 3 #1/2/95/2         2       5      13        8      10
    ## # ℹ 124 more rows
…
